…
## Reading RBA decisions and minutes

The functions `read_rba_decisions()` and `read_rba_minutes()` do what
they say on the tin:

``` r
library(rbatext)
```

``` r
decisions <- read_rba_decisions()

decisions
#> # A tibble: 233 × 5
#>    date       author        text                cash_rate_change cash_rate_level
#>    <date>     <chr>         <chr>                          <dbl>           <dbl>
#>  1 1990-01-23 Bernie Fraser The Governor of th…            -0.75            17.2
#>  2 1990-02-15 Bernie Fraser The Reserve Bank a…            -0.5             16.8
#>  3 1990-04-04 Bernie Fraser The Reserve Bank p…            -1.25            15.2
#>  4 1990-08-02 Bernie Fraser The Reserve Bank w…            -1               14  
#>  5 1990-10-15 Bernie Fraser The Reserve Bank w…            -1               13  
#>  6 1990-12-18 Bernie Fraser Given current and …            -1               12  
#>  7 1991-04-04 Bernie Fraser The Reserve Bank w…            -0.5             11.5
#>  8 1991-05-16 Bernie Fraser The Reserve Bank b…            -1               10.5
#>  9 1991-09-03 Bernie Fraser The Reserve Bank w…            -1                9.5
#> 10 1991-11-06 Bernie Fraser The Reserve Bank w…            -1                8.5
#> # ℹ 223 more rows
```

This returns a tidy tibble containing the full text of each monetary
policy decision since 1990.

``` r
minutes <- read_rba_minutes()

minutes
#> # A tibble: 201 × 5
#>    date       title                       text  cash_rate_change cash_rate_level
#>    <date>     <chr>                       <chr>            <dbl>           <dbl>
#>  1 2006-10-03 Minutes of the Monetary Po… Minu…             0               6   
#>  2 2006-11-07 Minutes of the Monetary Po… Minu…             0.25            6.25
#>  3 2006-12-05 Minutes of the Monetary Po… Minu…             0               6.25
#>  4 2007-02-06 Minutes of the Monetary Po… Minu…             0               6.25
#>  5 2007-03-06 Minutes of the Monetary Po… Minu…             0               6.25
#>  6 2007-04-03 Minutes of the Monetary Po… Minu…             0               6.25
#>  7 2007-05-01 Minutes of the Monetary Po… Minu…             0               6.25
#>  8 2007-06-05 Minutes of the Monetary Po… Minu…             0               6.25
#>  9 2007-07-03 Minutes of the Monetary Po… Minu…             0               6.25
#> 10 2007-08-07 Minutes of the Monetary Po… Minu…             0.25            6.5 
#> # ℹ 191 more rows
```
…
raw_word_counts <- decisions %>% 
  mutate(year = year(date)) %>% 
  unnest_tokens(word, text) %>% 
  group_by(year, word) %>% 
  count() 

raw_word_counts
#> # A tibble: 17,875 × 3
#> # Groups:   year, word [17,875]
#>     year word      n
#>    <dbl> <chr> <int>
#>  1  1990 0.5       1
#>  2  1990 1         2
#>  3  1990 10        1
#>  4  1990 12        2
#>  5  1990 13        1
#>  6  1990 15        3
#>  7  1990 16        1
#>  8  1990 1988      1
#>  9  1990 1989      2
#> 10  1990 1990      3
#> # ℹ 17,865 more rows
```

Then we remove ‘stop words’ (common words like ‘the’ or ‘if’), as well
as removing numbers from the text:

``` r
word_counts <- raw_word_counts %>% 
  anti_join(stop_words,
            by = "word") %>% 
  filter(is.na(suppressWarnings(as.numeric(word))))

word_counts
#> # A tibble: 12,321 × 3
#> # Groups:   year, word [12,321]
#>     year word             n
#>    <dbl> <chr>        <int>
#>  1  1990 abating          1
#>  2  1990 acceptable       1
#>  3  1990 account          4
#>  4  1990 accounts         1
#>  5  1990 accumulating     2
#>  6  1990 achieving        1
#>  7  1990 acted            1
#>  8  1990 action           4
#>  9  1990 activity         8
#> 10  1990 adjustment       2
#> # ℹ 12,311 more rows
```

Then we calculate the [term frequency-inverse document
frequency](https://www.tidytextmining.com/tfidf) of each word for each
year. This is the number of times a word is used in a given year,
adjusted by the number of times the word is used across all years.

``` r

year_tfidfs <- word_counts %>% 
  bind_tf_idf(word, year, n)

year_tfidfs
#> # A tibble: 12,321 × 6
#> # Groups:   year, word [12,321]
#>     year word             n      tf   idf   tf_idf
#>    <dbl> <chr>        <int>   <dbl> <dbl>    <dbl>
#>  1  1990 abating          1 0.00118 1.92  0.00226 
#>  2  1990 acceptable       1 0.00118 3.53  0.00415 
#>  3  1990 account          4 0.00471 0.482 0.00227 
#>  4  1990 accounts         1 0.00118 1.58  0.00186 
#>  5  1990 accumulating     2 0.00235 2.43  0.00571 
#>  6  1990 achieving        1 0.00118 0.818 0.000963
#>  7  1990 acted            1 0.00118 3.53  0.00415 
#>  8  1990 action           4 0.00471 1.13  0.00531 
#>  9  1990 activity         8 0.00941 0.231 0.00217 
#> 10  1990 adjustment       2 0.00235 0.818 0.00193 
#> # ℹ 12,311 more rows
```
…
